 ,Item Ref Id,Catalog No,Hsn Code,Item Name,Short Name,Uom,Conv Factor,Secondary UOM,Brand,Item Category,Item Type,Item Source,Status,Sales Item,Pur Item,Active,Product Line1,Rate
Animal Products,BISLERI VEDICA WATER 250ML,,2201, BISLERI VEDICA WATER 250ML,VEDICA,Case,0,Nos.,,Animal Products,Traded Goods,Produced,Open,Y,Y,Y,,233.05
Medical & Surgical Instruments,3 ply face mask,,6307,3 ply face mask,3 ply face mask,Nos.,0,Nos.,,Medical & Surgical Instruments,,,Open,Y,Y,Y,,2
Medical & Surgical Instruments,179,,6307,3 PLY FACE MASK (ULTRASONIC MELTBLOWN),,Nos.,0,Nos.,,Medical & Surgical Instruments,,,Open,Y,Y,Y,,4
Medical & Surgical Instruments,3 PLY MASK,,6210,3 PLY MASK,MASK,Nos.,0,Nos.,,Medical & Surgical Instruments,,,Open,Y,Y,Y,,2.4
Medical & Surgical Instruments,178,,6307,3 PLY MASK (MELTBLOWN) WITH NOSE PIN AND ULTRASONIC STICHING,,Nos.,0,Nos.,,Medical & Surgical Instruments,,,Open,Y,Y,Y,,3.4
Medical & Surgical Instruments,171,,6307,3 PLY MASK WITH PIN,,Nos.,0,Nos.,,Medical & Surgical Instruments,,,Open,Y,Y,Y,,4.2
Medical & Surgical Instruments,75% ALCOHOL WIPES,,0,75% ALCOHOL WIPES,,Nos.,0,Nos.,,Medical & Surgical Instruments,,,Open,Y,Y,Y,,40
Prepared Food stuffs: Beverages,44,,2202,7Up Nimbooz,,Case,0,Case,,Prepared Food stuffs: Beverages,,Purchased,Open,Y,Y,Y,,410
,1056,,85287100,APPLE MACKBOOK,APPLE MAckbook,Nos.,0,Nos.,,,,,Open,Y,Y,Y,,1100
Medical & Surgical Instruments,187,,3402,Automatic Sanitizer Dispenser,,Nos.,0,Nos.,,Medical & Surgical Instruments,,,Open,Y,Y,Y,,4400
,1050,,5705,B38177 CUSHION MET Y,B38177 CUSHION MET Y,Mtr.,0,Mtr.,,,,,Open,Y,Y,Y,,974.58
,56,,2201,BISLERI 250ML PK 24,,Case,0,Case,,,,,Open,Y,Y,Y,,110
Prepared Food stuffs: Beverages,197351,,2202,BISLERI MINERAL WATER 1LTR PK 12,,Case,0,Case,,Prepared Food stuffs: Beverages,Traded Goods,Produced,Open,Y,Y,Y,,168
Prepared Food stuffs: Beverages,197353,,2202,BISLERI MINERAL WATER 2LTR PK 9,,Case,0,Case,,Prepared Food stuffs: Beverages,Traded Goods,Produced,Open,Y,Y,Y,,212.76
Prepared Food stuffs: Beverages,197349,,2202,BISLERI MINERAL WATER 500ML PK24,,Case,0,Case,,Prepared Food stuffs: Beverages,Traded Goods,Produced,Open,Y,Y,Y,,154
,57,,2201,BISLERI VEDICA 1 LTR WATER PK 12,,Case,0,Case,,,,,Open,Y,Y,Y,,300
,61,,2202,Bisleri Water 250 ml,,Case,0,Case,,,,Purchased,Open,N,N,Y,,145
,198,,4819,BOX 300 GSM DUPLEX BOARD,,Nos.,0,Nos.,,,,,Open,Y,Y,Y,,15
,217,,4819,BOX STICKER,,Nos.,0,Nos.,,,,,Open,Y,Y,Y,,0.75
,84,,2201,Catch Mineral 1 Ltr Water,,Case,0,Case,,,,,Open,Y,Y,Y,,300
,83,,2201,Catch Mineral Water 1 Ltr Pk 12,,Case,0,Case,,,,,Open,N,N,Y,,300
Prepared Food stuffs: Beverages,39,,2201,CATCH SODA 500 ML,,Case,0,,,Prepared Food stuffs: Beverages,,,Open,Y,Y,Y,,330
Prepared Food stuffs: Beverages,85,,2202,Coca Cola 180 ml Can,,Case,0,Case,Coca Cola,Prepared Food stuffs: Beverages,,,Open,Y,Y,Y,,400
Prepared Food stuffs: Beverages,288922,,2202,COCA COLA CAN 300ML PK24,,Case,0,Case,Coca Cola,Prepared Food stuffs: Beverages,Traded Goods,Produced,Open,Y,Y,Y,,612
,1045,,2208,COKE 1.25 LTR,,Ltr.,0,,Coca Cola,,,,Open,Y,Y,Y,,100
Prepared Food stuffs: Beverages,100277,,2202,COKE 2 LTR PK 9,,Case,0,Case,Coca Cola,Prepared Food stuffs: Beverages,Traded Goods,Produced,Open,Y,Y,Y,,585
,166,,2202,Coke 250ml PK 28,,Case,0,Case,Coca Cola,,,,Open,Y,Y,Y,,490
Prepared Food stuffs: Beverages,41,,2202,Coke 250ml PK 30,,Case,0,Case,Coca Cola,Prepared Food stuffs: Beverages,,,Open,Y,Y,Y,,472
Prepared Food stuffs: Beverages,202,,2202,COKE 330 ML CAN PK 24,,Case,0,Case,Coca Cola,Prepared Food stuffs: Beverages,,,Open,Y,Y,Y,,710
Prepared Food stuffs: Beverages,100270,,2202,COKE 600ML PK 24,,Case,0,Case,Coca Cola,Prepared Food stuffs: Beverages,Traded Goods,Produced,Open,Y,Y,Y,,685
Prepared Food stuffs: Beverages,100271,,2202,Coke 750ML PK24,,Case,0,Case,,Prepared Food stuffs: Beverages,,,Open,Y,Y,Y,,535.7
,220,,2202,Coke Zero 250ml ,,Case,0,Case,,,,,Open,Y,Y,Y,,430
Prepared Food stuffs: Beverages,10,,2202,Coke Zero 300 ml PK24,,Case,0,,Coca Cola,Prepared Food stuffs: Beverages,Traded Goods,Produced,Open,Y,Y,Y,,100
,205,,4819,"Corrugated Boxes Size 25 x 18 x 21"", 3 Ply Box 2 K",,Nos.,0,Nos.,,,,,Open,Y,Y,Y,,49.1
,Del,,1509,DEL-POMACE OLIVE OIL 10 LTR,,Pack,0,Pack,,,,,Open,Y,Y,Y,,2705
,154,,1509,DEL-POMACE OLIVE OIL 5 LTR,,Pack,0,Pack,,,,,Open,Y,Y,Y,,1420
Prepared Food stuffs: Beverages,100,,2201,Delivery/Courier Charges,Delivery Charges,Nos.,0,,,Prepared Food stuffs: Beverages,Freight,,Open,Y,Y,Y,,500
,206,,1246,Diet coke 180 ml pk36,,Nos.,0,Nos.,,,,,Open,Y,Y,Y,,670
,157,,2202,DIET COKE 500 ML PET PK 24,,Bottles,0,,Coca Cola,,,,Open,Y,Y,Y,,600
Prepared Food stuffs: Beverages,355218,,2202,DIET COKE CAN 300ML PK24,,Case,0,Case,Coca Cola,Prepared Food stuffs: Beverages,Traded Goods,Produced,Open,Y,Y,Y,,612
Medical & Surgical Instruments,180,,9025,DIKANG Infrared Forehead Thermometer HG01,,Nos.,0,Nos.,,Medical & Surgical Instruments,,,Open,Y,Y,Y,,2400
Medical & Surgical Instruments,1300,,8302,Door Close Godons,DOOR close Godons,Nos.,0,Nos.,,Medical & Surgical Instruments,,,Open,Y,Y,Y,,932
,2009,,2009,Druk Lime Juice Cordial 750 ml,,Bottles,0,Bottles,,,,,Open,Y,Y,Y,,100
Prepared Food stuffs: Beverages,214178,,2201,DUKES SODA 750 ML PK 24,,Case,0,Case,Coca Cola,Prepared Food stuffs: Beverages,Traded Goods,Produced,Open,Y,Y,Y,,100
Medical & Surgical Instruments,193,,8424,Electric Sanitizer Spray Machine,,Nos.,0,Nos.,,Medical & Surgical Instruments,,,Open,Y,Y,Y,,4000
Medical & Surgical Instruments,174,,3926,Face Shield,,Nos.,0,Nos.,,Medical & Surgical Instruments,,,Open,Y,Y,Y,,50
Prepared Food stuffs: Beverages,38,,2202,FANTA 2 LTR PK 9,,Case,0,Case,,Prepared Food stuffs: Beverages,,,Open,Y,Y,Y,,550
Prepared Food stuffs: Beverages,100279,,2202,FANTA 600ML PK 24,,Case,0,,Coca Cola,Prepared Food stuffs: Beverages,Traded Goods,Produced,Open,Y,Y,Y,,685
Prepared Food stuffs: Beverages,32,,2202,FANTA 750 L PK 24,,Case,0,Case,Coca Cola,Prepared Food stuffs: Beverages,,,Open,Y,Y,Y,,783
Prepared Food stuffs: Beverages,288958,,2202,FANTA CAN 300ML PK24,,Case,0,Case,Coca Cola,Prepared Food stuffs: Beverages,Traded Goods,Produced,Open,Y,Y,Y,,648
Prepared Food stuffs: Beverages,201,,2202,FANTA CAN 330 ML PK 24,,Case,0,Case,,Prepared Food stuffs: Beverages,,,Open,Y,Y,Y,,715
Mineral Products,1150,,1155,FANTA ORANGE 250ML PK30,FANTA,Case,0,Case,Coca Cola,Mineral Products,,,Open,Y,Y,Y,,550
,212,,998231,"Fee for GST, TDS and Income Tax Return",,Nos.,0,Nos.,,,,,Open,Y,Y,Y,,35000
,105,,3923,Garbage Bag,,Kgs.,0,Kgs.,,,,,Open,Y,Y,Y,,400
Animal Products,22,,2202,Ginger ale,,Case,,NULL,Coca Cola,Animal Products,Traded Goods,Produced,Open,Y,Y,Y,,840
Medical & Surgical Instruments,173,,9004,GOGGLES,,Nos.,0,,,Medical & Surgical Instruments,,,Open,Y,Y,Y,,75
,1058,,2090,Gown With 3Se Logo,,Nos.,0,Nos.,,,,,Open,Y,Y,Y,,150
Medical & Surgical Instruments,185,,3808,Hand Sanitizer 5 Ltr,,Bottles,0,Bottles,,Medical & Surgical Instruments,,,Open,Y,Y,Y,,800
Medical & Surgical Instruments,188,,3402,Hand Sanitizer Dispenser 500ml ,,Bottles,0,Bottles,,Medical & Surgical Instruments,,,Open,Y,Y,Y,,160
Medical & Surgical Instruments,189,,3402,Hand Sanitizer Small 120ml,,Bottles,0,Bottles,,Medical & Surgical Instruments,,,Open,Y,Y,Y,,35
Prepared Food stuffs: Beverages,94,,2201,Himalaya Water 1 Ltr PK12,,Case,0,Case,,Prepared Food stuffs: Beverages,,,Open,Y,Y,Y,,330
,129,,2201,Himalayan Still Glass Bottle 750 ml,,Case,0,Case,,,,,Open,Y,Y,Y,,107
,117,,2008,Ibizza Blue Curacao Squash 750ml,,Bottles,0,Bottles,,,,,Open,Y,Y,Y,,310
,128,,2008,Ibizza Elder Flower Squash 750 ml,,Bottles,0,Bottles,,,,,Open,Y,Y,Y,,310
,135,,2008,Ibizza Green Apple Squash 750 ml,,Bottles,0,Bottles,,,,,Open,Y,Y,Y,,275
,155,,2008,Ibizza Grenadine Squash 750 ml,,Bottles,0,Bottles,,,,,Open,Y,Y,Y,,305
,123,,2008,Ibizza Khus Squash 750ml,,Bottles,0,Bottles,,,,,Open,Y,Y,Y,,310
,118,,2008,Ibizza Mojito Mint Squash 750ml,,Bottles,0,Bottles,,,,,Open,Y,Y,Y,,310
,126,,2008,Ibizza Passion Fruit Squash 750 ml,,Bottles,0,Bottles,,,,,Open,Y,Y,Y,,310
,127,,2008,Ibizza Peach Squash 750 ml,,Bottles,0,Bottles,,,,,Open,Y,Y,Y,,310
,136,,2008,Ibizza Triple Sec Squash 750 ml,,Bottles,0,Bottles,,,,,Open,Y,Y,Y,,275
,134,,2008,Ibizza Vanilla Squash 750ml,,Bottles,0,Bottles,,,,,Open,Y,Y,Y,,275
,116,,2008,Ibizza Watermelon Squash 750 ml,,Bottles,0,Bottles,,,,,Open,Y,Y,Y,,310
Medical & Surgical Instruments,191,,9027,Infrared Thermometer,,Nos.,0,Nos.,,Medical & Surgical Instruments,,,Open,Y,Y,Y,,1500
Prepared Food stuffs: Beverages,37,,2201,KINGFISHER SODA,,Case,0,Case,,Prepared Food stuffs: Beverages,,,Open,Y,Y,Y,,260
Prepared Food stuffs: Beverages,204569,,2202,KINLEY MINERAL WATER 1LTR PK 12,,Case,0,Case,Coca Cola,Prepared Food stuffs: Beverages,Traded Goods,Produced,Open,Y,Y,Y,,199.5
Prepared Food stuffs: Beverages,397289,,2202,KINLEY MINERAL WATER 500ML PK24,,Case,0,Case,Coca Cola,Prepared Food stuffs: Beverages,Traded Goods,Produced,Open,Y,Y,Y,,180
Prepared Food stuffs: Beverages,40,,2201,KINLEY SODA 600ML PK 24,,Case,0,Case,Coca Cola,Prepared Food stuffs: Beverages,,,Open,Y,Y,Y,,225
Prepared Food stuffs: Beverages,30,,2201,KINLEY SODA 750ML PK 24,,Case,0,Case,Coca Cola,Prepared Food stuffs: Beverages,,,Open,Y,Y,Y,,254.16
Medical & Surgical Instruments,195,,6210,KN95 KHM-04V - FACE MASK WITH EXHALATION VALVE ,,Nos.,0,Nos.,,Medical & Surgical Instruments,,,Open,Y,Y,Y,,35
Medical & Surgical Instruments,194,,6210,KN95 KHM-05 FACE  MASK,,Nos.,0,,,Medical & Surgical Instruments,,,Open,Y,Y,Y,,35
Medical & Surgical Instruments,LATEX GLOVES,,4015,LATEX GLOVES,LATEX,Nos.,0,Nos.,,Medical & Surgical Instruments,,,Open,Y,Y,Y,,350
,1210,,1047,LIMCA 1.25 LTR,,Ltr.,0,Ltr.,Coca Cola,,,,Open,Y,Y,Y,,100
,210,,1249,Limca 180 ml pk36,,Nos.,0,Nos.,,,,,Open,Y,Y,Y,,670
Prepared Food stuffs: Beverages,253068,,2202,LIMCA 2 LTR PK 9,,Case,0,Case,Coca Cola,Prepared Food stuffs: Beverages,Traded Goods,Produced,Open,Y,Y,Y,,65
,162,,2202,LIMCA 250ML PET PK 30,,Case,0,Case,Coca Cola,,,,Open,Y,Y,Y,,488
Animal Products,167,,2202,Limca 250ml PK 28,,Case,0,Case,Coca Cola,Animal Products,,,Open,Y,Y,Y,,490
Prepared Food stuffs: Beverages,29,,2202,LIMCA 300ML CAN PK 24,,Case,0,Case,Coca Cola,Prepared Food stuffs: Beverages,,,Open,Y,Y,Y,,685
Prepared Food stuffs: Beverages,149549,,2202,LIMCA 600 ML PK 24,,Case,0,,Coca Cola,Prepared Food stuffs: Beverages,Traded Goods,Produced,Open,Y,Y,Y,,685
Prepared Food stuffs: Beverages,33,,2202,LIMCA 750ML PK 24,,Case,0,Case,Coca Cola,Prepared Food stuffs: Beverages,,,Open,Y,Y,Y,,720
,153,,2202,MINUTE MAID PULPY ORANGE 400 ML PK24,,Case,0,Case,Coca Cola,,,,Open,Y,Y,Y,,630
Prepared Food stuffs: Beverages,77,,2106,Monin Almond (Orgeat) 700ml ,,Bottles,0,Bottles,,Prepared Food stuffs: Beverages,,,Open,Y,Y,Y,,640
,130,,2106,Monin Amaretto 700 ml,,Bottles,0,Bottles,,,,,Open,Y,Y,Y,,640
,101,,2106,Monin Apricot Syrup 700ml,,Bottles,0,,Monin,,,,Open,Y,Y,Y,,640
,64,,2007,Monin Banana Puree,,Bottles,0,Bottles,,,Consumables,,Open,Y,Y,Y,,1100
,75,,2106,Monin Basil Syrup 700ml,,Bottles,0,Bottles,,,,,Open,Y,Y,Y,,640
,90,,2106,Monin Blackberry Syrup 700 ml,,Bottles,0,Bottles,,,,,Open,Y,Y,Y,,650
,109,,2106,MONIN BLUE CURACAO 1 LTR,,Bottles,0,Bottles,Monin,,,,Open,Y,Y,Y,,710
,45,,2106,Monin Blue Curacao 700 ml,,Bottles,0,Bottles,,,,Purchased,Open,Y,Y,Y,,645
Prepared Food stuffs: Beverages,63,,2007,MONIN BLUEBERRY PUREE 1000ML,,Bottles,0,,,Prepared Food stuffs: Beverages,,,Open,Y,Y,Y,,1098
,164,,2106,MONIN BLUEBERRY SYRUP 1 LTR,,Bottles,0,Bottles,Monin,,,,Open,Y,Y,Y,,800
,145,,2106,Monin Blueberry Syrup 700 ml,,Bottles,0,,Monin,,,,Open,Y,Y,Y,,640
Prepared Food stuffs: Beverages,46,,2106,Monin Caramel 700 ml,,Bottles,0,Bottles,,Prepared Food stuffs: Beverages,,,Open,Y,Y,Y,,645
,138,,2106,Monin Cherry Syrup 700ml,,Bottles,0,Bottles,Monin,,,,Open,Y,Y,Y,,640
,72,,2106,Monin Chocolate 700ml,,Bottles,0,,,,,,Open,Y,Y,Y,,1100
,124,,2106,Monin Cinnamon 700 ml,,Bottles,0,Bottles,,,,,Open,Y,Y,Y,,640
,146,,2106,MONIN CINNAMON SYRUP 1 LTR,,Bottles,0,Bottles,Monin,,,,Open,Y,Y,Y,,710
Prepared Food stuffs: Beverages,47,,2106,Monin Coconut 700 ml,,Bottles,0,Bottles,,Prepared Food stuffs: Beverages,,,Open,Y,Y,Y,,645
,147,,2106,MONIN COCONUT SYRUP 1 LTR,,Bottles,0,Bottles,Monin,,,,Open,Y,Y,Y,,710
,120,,2106,Monin Cranberry Syrup 700 ml,,Bottles,0,,Monin,,,,Open,Y,Y,Y,,640
,73,,2106,Monin Cucumber 700ml,,Bottles,0,Bottles,,,,,Open,Y,Y,Y,,640
,148,,2106,MONIN CUCUMBER SYRUP 1 LTR,,Bottles,0,,Monin,,,,Open,Y,Y,Y,,710
Prepared Food stuffs: Beverages,48,,2106,Monin Elder Flower 700 ml,,Bottles,0,Bottles,,Prepared Food stuffs: Beverages,,,Open,Y,Y,Y,,645
Prepared Food stuffs: Beverages,59,,2106,Monin Ginger 700 ml,,Bottles,0,Bottles,,Prepared Food stuffs: Beverages,,,Open,Y,Y,Y,,650
,87,,2106,Monin Ginger Bread 700 ml ,,Bottles,0,,Monin,,,,Open,Y,Y,Y,,650
,122,,2106,MONIN GRAPEFRUIT 1 LTR,,Bottles,0,Bottles,Monin,,,,Open,Y,Y,Y,,710
,110,,2106,MONIN GREEN APPLE 1 LTR,,Bottles,0,Bottles,Monin,,,,Open,Y,Y,Y,,710
,125,,2106,Monin Green Apple 700 ml,,Bottles,0,Bottles,,,,,Open,Y,Y,Y,,640
,65,,2007,Monin Green Apple Puree,,Bottles,0,Bottles,,,,,Open,Y,Y,Y,,1100
,144,,2106,Monin Green Mint Syrup 700 ml,,Bottles,0,Bottles,,,,,Open,Y,Y,Y,,640
,111,,2106,MONIN GRENADINE 1 LTR,,Bottles,0,Bottles,Monin,,,,Open,Y,Y,Y,,710
Prepared Food stuffs: Beverages,49,,2106,Monin Grenadine 700 ml,,Bottles,0,,,Prepared Food stuffs: Beverages,,,Open,Y,Y,Y,,645
Prepared Food stuffs: Beverages,131,,2106,Monin Guava 700 ml,,Bottles,0,Bottles,,Prepared Food stuffs: Beverages,,,Open,Y,Y,Y,,640
,170,,2106,MONIN HAZELNUT SYRUP 700 ML,,Bottles,0,,Monin,,,,Open,Y,Y,Y,,640
,161,,2106,Monin Ice Tea Lemon 700 ml,,Bottles,0,,Monin,,,,Open,Y,Y,Y,,640
,143,,2106,Monin Irish Coffee Syrup 700ml,,Bottles,0,Bottles,Monin,,,,Open,Y,Y,Y,,640
,139,,2106,Monin Jasmine Syrup 700ml,,Bottles,0,Bottles,Monin,,,,Open,Y,Y,Y,,640
,66,,2007,Monin Kiwi Puree,,Bottles,0,Bottles,,,,,Open,Y,Y,Y,,1100
,92,,2106,Monin Kiwi Syrup 700 ml,,Bottles,0,Bottles,Monin,,,,Open,Y,Y,Y,,650
Prepared Food stuffs: Beverages,81,,2106,Monin Levender 700 ml,,Bottles,0,Bottles,Monin,Prepared Food stuffs: Beverages,,,Open,Y,Y,Y,,1100
,67,,2007,Monin Mango Puree,,Bottles,0,,,,,,Open,Y,Y,Y,,1100
Prepared Food stuffs: Beverages,82,,2106,Monin Melon 700 ml,,Bottles,0,Bottles,,Prepared Food stuffs: Beverages,,,Open,Y,Y,Y,,640
,112,,2106,MONIN MOJITO MINT 1 LTR,,Bottles,0,Bottles,Monin,,,,Open,Y,Y,Y,,710
Prepared Food stuffs: Beverages,50,,2106,Monin Mojito Mint 700 ml,,Bottles,0,Bottles,,Prepared Food stuffs: Beverages,,,Open,Y,Y,Y,,645
,68,,2007,Monin Passion Fruit Puree,,Bottles,0,Bottles,,,,,Open,Y,Y,Y,,1100
,149,,2106,MONIN PASSION FRUIT SYRUP 1 LTR,,Bottles,0,Bottles,Monin,,,,Open,Y,Y,Y,,710
,91,,2106,Monin Passion Fruit Syrup 700 ml,,Bottles,0,Bottles,,,,,Open,Y,Y,Y,,650
,113,,2106,MONIN PEACH 1 LTR,,Bottles,0,Bottles,Monin,,,,Open,Y,Y,Y,,710
Prepared Food stuffs: Beverages,51,,2106,Monin Peach 700 ml,,Bottles,0,,,Prepared Food stuffs: Beverages,,,Open,Y,Y,Y,,645
Prepared Food stuffs: Beverages,80,,2007,MONIN PEACH PUREE 1000ML,,Bottles,0,Bottles,,Prepared Food stuffs: Beverages,,,Open,Y,Y,Y,,1150
,93,,2106,Monin Peach Syrup 700 ml,,Bottles,0,,Monin,,,,Open,Y,Y,Y,,650
,69,,2007,Monin Pineapple Puree,,Bottles,0,Bottles,,,,,Open,Y,Y,Y,,1100
,121,,2106,Monin Pink Grapefruit Syrup 1 ltr,,Bottles,0,Bottles,Monin,,,,Open,Y,Y,Y,,710
,102,,2106,Monin Popcorn Syrup 700ml,,Bottles,0,Bottles,Monin,,,,Open,Y,Y,Y,,640
,62,,2106,Monin Raspberry 700ml,,Bottles,0,Bottles,,,,,Open,Y,Y,Y,,640
,70,,2007,Monin Raspberry Puree,,Bottles,0,Bottles,,,,,Open,Y,Y,Y,,1100
,156,,2007,MONIN REDBERRY PUREE 1000 ML,,Bottles,0,Bottles,Monin,,,,Open,Y,Y,Y,,1100
Prepared Food stuffs: Beverages,52,,2106,Monin Rose 700 ml,,Bottles,0,,,Prepared Food stuffs: Beverages,,,Open,Y,Y,Y,,645
,163,,2106,MONIN ROSE SYRUP 1 LTR,,Bottles,0,Bottles,Monin,,,,Open,Y,Y,Y,,800
,103,,2106,Monin Rose Syrup 700ml,,Bottles,0,Bottles,Monin,,,,Open,Y,Y,Y,,640
,104,,2106,Monin Sangria Mix Syrup 700ml,,Bottles,0,Bottles,Monin,,,,Open,Y,Y,Y,,640
,71,,2007,Monin Stawberry Puree,,Bottles,0,Bottles,,,,,Open,Y,Y,Y,,1100
Prepared Food stuffs: Beverages,58,,2106,Monin Strawberry 700 ml,,Bottles,0,Bottles,,Prepared Food stuffs: Beverages,,,Open,Y,Y,Y,,640
,150,,2106,MONIN STRAWBERRY SYRUP 1 LTR,,Bottles,0,,Monin,,,,Open,Y,Y,Y,,710
Prepared Food stuffs: Beverages,13,,155,Monin syrups,,Bottles,0,Bottles,Monin,Prepared Food stuffs: Beverages,Traded Goods,Produced,Open,Y,Y,Y,,650
Prepared Food stuffs: Beverages,53,,2106,Monin Triple 700 ml,,Bottles,0,Bottles,,Prepared Food stuffs: Beverages,,,Open,Y,Y,Y,,645
,151,,2106,MONIN TRIPLE SEC SYRUP 1 LTR,,Bottles,0,Bottles,Monin,,,,Open,Y,Y,Y,,710
,152,,2106,MONIN VANILLA SYRUP 1 LTR,,Bottles,0,Bottles,,,,,Open,Y,Y,Y,,710
,1144,,2106,Monin Vanilla Syrup 700ml,,Bottles,0,Bottles,Monin,,,,Open,Y,Y,Y,,640
,114,,2106,MONIN WATERMELON 1 LTR,,Bottles,0,Bottles,Monin,,,,Open,Y,Y,Y,,710
Prepared Food stuffs: Beverages,54,,2106,Monin Watermelon 700 ml,,Bottles,0,Bottles,,Prepared Food stuffs: Beverages,,,Open,Y,Y,Y,,645
,140,,2106,Monin Yellow Melon,,Bottles,0,Bottles,Monin,,,,Open,Y,Y,Y,,640
,141,,2007,MONIN YUZU PUREE 1000ML ,,Bottles,0,Bottles,Monin,,,,Open,Y,Y,Y,,1318
Medical & Surgical Instruments,MS PPE SHEETBAR STAND HND SANTINIZATION,,7308,MS PPE SHEETBAR STAND HND SANTINIZATION,,Nos.,0,Nos.,,Medical & Surgical Instruments,,,Open,Y,Y,Y,,1150
Medical & Surgical Instruments,213,,6210,N95 FACE MASK,,Nos.,0,Nos.,,Medical & Surgical Instruments,,,Open,Y,Y,Y,,30
Medical & Surgical Instruments,204,,6210,N99 RESPIRATOR MASK,,Nos.,0,Nos.,,Medical & Surgical Instruments,,,Open,Y,Y,Y,,48
,74,,4818,Napkin Paper,,Pcs,0,,,,,,Open,Y,Y,Y,,27
Medical & Surgical Instruments,181,,4015,NITRILE DISPOSABLE GLOVES ,,Nos.,0,Nos.,,Medical & Surgical Instruments,,,Open,Y,Y,Y,,4.5
Medical & Surgical Instruments,NITRILE GLOVES,,4015,NITRILE GLOVES,,Nos.,0,,,Medical & Surgical Instruments,,,Open,Y,Y,Y,,3
Medical & Surgical Instruments,177,,6302,Nose Pin 3 Ply Mask,,Nos.,0,Nos.,,Medical & Surgical Instruments,,,Open,Y,Y,Y,,5.15
Medical & Surgical Instruments,1049,,9018,OXIMERTER MASCHINE,OXIMERTER MASCHINE,Nos.,0,Nos.,,Medical & Surgical Instruments,,,Open,Y,Y,Y,,1059
,222,,4819,Packaging and Local Transportation (2500 Boxes),,Nos.,0,Nos.,,,,,Open,Y,Y,Y,,9000
Medical & Surgical Instruments,186,,3402,Pedal Sanitizer (Foot operated),,Nos.,0,Nos.,,Medical & Surgical Instruments,,,Open,Y,Y,Y,,1600
,86,,2201,Perrier 330 ml PK 24 Water,,Case,0,Case,,,,,Open,Y,Y,Y,,2300
,165,,2201,Perrier Sparkling Water 750 ml PK 12,,Bottles,0,Bottles,,,,,Open,Y,Y,Y,,2200
Medical & Surgical Instruments,197,,3922,POUCH (PLASTIC),,Nos.,0,,,Medical & Surgical Instruments,,,Open,Y,Y,Y,,0.8
Medical & Surgical Instruments,172,,6210,PPE KIT (90 GSM LAMINATED),,Nos.,0,Nos.,,Medical & Surgical Instruments,,,Open,Y,Y,Y,,350
Medical & Surgical Instruments,1156,,1121,PPE OVERALLS,PPE OVERALLS,Nos.,0,Nos.,,Medical & Surgical Instruments,,,Open,Y,Y,Y,,350
Medical & Surgical Instruments,218,,4819,PRINTED MRP STICKER,,Nos.,0,Nos.,,Medical & Surgical Instruments,,,Open,Y,Y,Y,,0.3
Animal Products,199,,4819,PRINTING CHARGES ,,Nos.,0,Nos.,,Animal Products,,,Open,Y,Y,Y,,0.44
,214,,4901,Printing Material,,Pcs,0,,,,,,Open,Y,Y,Y,,10
Prepared Food stuffs: Beverages,89,,2201,Qua Mineral Water 1 Ltr,,Case,0,Case,,Prepared Food stuffs: Beverages,,,Open,Y,Y,Y,,490
,137,,2202,Real Active Apple 1 Ltr,,Case,0,,Real,,,,Open,Y,Y,Y,,1272
Prepared Food stuffs: Beverages,11,,2202,REAL APPLE JUICE 1 LTR PK 12,,Case,0,Case,Real,Prepared Food stuffs: Beverages,Traded Goods,Produced,Open,Y,Y,Y,,921
Prepared Food stuffs: Beverages,262906,,2202,REAL APPLE NECTAR 1 LTR PK12,,Case,0,Case,Real,Prepared Food stuffs: Beverages,Traded Goods,Produced,Open,Y,Y,Y,,78.34
Prepared Food stuffs: Beverages,88,,2202,Real Coconut Water 200 ml PK 60,,Case,0,Case,,Prepared Food stuffs: Beverages,,,Open,Y,Y,Y,,1920
Prepared Food stuffs: Beverages,152075,,2202,REAL CRANBERRY NECTAR 1LT PK 12,,Case,0,Case,Real,Prepared Food stuffs: Beverages,Traded Goods,Produced,Open,Y,Y,Y,,1014
Prepared Food stuffs: Beverages,12,,2202,Real Cranberry Pk 12,,Case,0,Case,Real,Prepared Food stuffs: Beverages,Traded Goods,Produced,Open,Y,Y,Y,,1020
Prepared Food stuffs: Beverages,36,,2202,REAL GRAPE JUICE 1 LTR PK 12,,Case,0,Case,Real,Prepared Food stuffs: Beverages,,,Open,Y,Y,Y,,960
Prepared Food stuffs: Beverages,142987,,2202,REAL GUAVA 1 LTR PK 12,,Case,0,Case,Real,Prepared Food stuffs: Beverages,Traded Goods,Produced,Open,Y,Y,Y,,921
,119,,2202,REAL JAMUN 1 LTR PK 12,,Case,0,Case,Real,,,,Open,Y,Y,Y,,850
Prepared Food stuffs: Beverages,31,,2202,REAL LITCHI JUICE 1 LTR PK12,,Case,0,Case,Real,Prepared Food stuffs: Beverages,,,Open,Y,Y,Y,,960
Prepared Food stuffs: Beverages,130138,,2202,REAL MANGO 1LTR PK 12,,Case,0,Case,Real,Prepared Food stuffs: Beverages,Traded Goods,Produced,Open,Y,Y,Y,,921
Prepared Food stuffs: Beverages,96,,2202,REAL MIXED FRUIT 200 ML PK30,,Case,0,Case,Real,Prepared Food stuffs: Beverages,,,Open,Y,Y,Y,,420
Prepared Food stuffs: Beverages,35,,2202,REAL MIXED FRUIT JUICE 1 LTR PK 12,,Case,0,Case,Real,Prepared Food stuffs: Beverages,,,Open,Y,Y,Y,,940
Prepared Food stuffs: Beverages,130128,,2202,REAL ORANGE 1LTR PK 12,,Case,0,Case,Real,Prepared Food stuffs: Beverages,Traded Goods,Produced,Open,Y,Y,Y,,921
Prepared Food stuffs: Beverages,95,,2202,REAL ORNGE 200 ML PK 30,,Case,0,Case,,Prepared Food stuffs: Beverages,,,Open,Y,Y,Y,,420
Prepared Food stuffs: Beverages,130140,,2202,REAL PINEAPPLE 1LTR PK 12,,Case,0,,Real,Prepared Food stuffs: Beverages,Traded Goods,Produced,Open,Y,Y,Y,,921
Prepared Food stuffs: Beverages,60,,2202,REAL POMEGRANATE 1 LTR PK 12,,Case,0,Case,Real,Prepared Food stuffs: Beverages,,,Open,Y,Y,Y,,950
Prepared Food stuffs: Beverages,229926,,2202,REAL TOMATO 1LTR PK 12,,Case,0,Case,Real,Prepared Food stuffs: Beverages,Traded Goods,Produced,Open,Y,Y,Y,,921
Animal Products,23,,2202,Red bull ,,Case,0,Ctn.,Redbull,Animal Products,Traded Goods,Produced,Open,Y,Y,Y,,308
Prepared Food stuffs: Beverages,180961,,2202,REDBULL 250ML PK 24,,Case,0,Case,RedBull,Prepared Food stuffs: Beverages,Traded Goods,Produced,Open,Y,Y,Y,,1950
,211,,996111,Sales Commission,,Nos.,0,,,,,,Open,Y,Y,Y,,52869
Prepared Food stuffs: Beverages,219,,2201,San Pellegrino Sparkling Water 250 ml Pk 24,,Case,0,,Real,Prepared Food stuffs: Beverages,,,Open,Y,Y,Y,,1950
,221,,2201,San Pellegrino Sparkling Water 750 ml PK 12,,Case,0,Case,,,,,Open,Y,Y,Y,,2150
Medical & Surgical Instruments,1169,,3307,SANITIZER 100 ML,SANITIZER 100 ML,Nos.,0,Nos.,,Medical & Surgical Instruments,,,Open,Y,Y,Y,,40
Medical & Surgical Instruments,182,,8424,SANITIZER DISPENSER 700 ml Battery Operated,,Nos.,0,Nos.,,Medical & Surgical Instruments,,,Open,Y,Y,Y,,2300
Medical & Surgical Instruments,SANITIZER SPRAY ,,3307,SANITIZER SPRAY ,SANITIZER,Nos.,0,Nos.,,Medical & Surgical Instruments,,,Open,Y,Y,Y,,155
Medical & Surgical Instruments,175,,9025,Scanner IR Thermometer IP 65,,Nos.,0,Nos.,,Medical & Surgical Instruments,,,Open,Y,Y,Y,,2500
Prepared Food stuffs: Beverages,337711,,2202,SCHWEPPES GINGER 300ML CAN PK24,,Case,0,Ctn.,Schweppes,Prepared Food stuffs: Beverages,Traded Goods,Produced,Open,Y,Y,Y,,840
Prepared Food stuffs: Beverages,298439,,2201,SCHWEPPES SODAWATER 300MLCAN PK24,,Case,0,Case,Schweppes,Prepared Food stuffs: Beverages,Traded Goods,Produced,Open,Y,Y,Y,,672
Animal Products,298436,,2202,SCHWEPPES TONIC WATER-300ML CAN,,Case,0,Ctn.,Schweppes,Animal Products,Traded Goods,Produced,Open,Y,Y,Y,,35
Animal Products,26,,168,Smart Water,,Case,,NULL,,Animal Products,Traded Goods,Produced,Open,Y,Y,Y,,34
Animal Products,20,,2201,Soda can ,,Case,0,,Coca Cola,Animal Products,Traded Goods,Produced,Open,Y,Y,Y,,840
,215,,3808,Sodium Hypochlorite 5 Ltr,,Nos.,0,Nos.,,,,,Open,Y,Y,Y,,450
,1041,,1066,SPRITE 1.25 LTR,,Ltr.,0,Ltr.,,,,,Open,Y,Y,Y,,100
Animal Products,221467,,2202,SPRITE 1.25LTR PK12,,Ltr.,0,,Coca Cola,Animal Products,Traded Goods,Produced,Open,Y,Y,Y,,100
,208,,1248,Sprite 180 ml pk36,,Nos.,0,,Coca Cola,,,,Open,Y,Y,Y,,670
Prepared Food stuffs: Beverages,100351,,2202,SPRITE 2 LTR PK 9,,Case,0,Case,Coca Cola,Prepared Food stuffs: Beverages,Traded Goods,Produced,Open,Y,Y,Y,,585
Prepared Food stuffs: Beverages,55,,2202,SPRITE 250 ML PET PK 30,,Case,0,,Coca Cola,Prepared Food stuffs: Beverages,,Purchased,Open,Y,Y,Y,,492
,169,,2202,Sprite 250ml PK 28,,Case,0,Case,Coca Cola,,,,Open,Y,Y,Y,,490
Prepared Food stuffs: Beverages,24,,2202,SPRITE 300 ML CAN PK 24,,Case,0,,Coca Cola,Prepared Food stuffs: Beverages,Traded Goods,Produced,Open,Y,Y,Y,,612
Prepared Food stuffs: Beverages,203,,2202,SPRITE 330 ML CAN PK 24,,Case,0,Case,Coca Cola,Prepared Food stuffs: Beverages,,,Open,Y,Y,Y,,710
Prepared Food stuffs: Beverages,27,,2202,Sprite 600ML PK 24,,Case,0,Case,,Prepared Food stuffs: Beverages,,,Open,Y,Y,Y,,720
Prepared Food stuffs: Beverages,34,,2202,SPRITE 750ML PK 24,,Case,0,Case,Coca Cola,Prepared Food stuffs: Beverages,,,Open,Y,Y,Y,,515
Medical & Surgical Instruments,216,,4819,STENCIL (NOT FOR SALE),,Nos.,0,Nos.,,Medical & Surgical Instruments,,,Open,Y,Y,Y,,7000
Medical & Surgical Instruments,176,,4015,SURGICAL GLOVES BOX,,Nos.,0,Nos.,,Medical & Surgical Instruments,,,Open,Y,Y,Y,,40
Medical & Surgical Instruments,196,,6210,SURGICAL GOWN 60 GSM SSMMS ,,Nos.,0,Nos.,,Medical & Surgical Instruments,,,Open,Y,Y,Y,,190
Medical & Surgical Instruments,192,,6307,Surgical Mask 3 Ply Machine Stiched,,Nos.,0,Nos.,,Medical & Surgical Instruments,,,Open,Y,Y,Y,,2
,158,,2008,Tastecraft Blueberry Crush 1 Ltr,,Bottles,0,Bottles,,,,,Open,Y,Y,Y,,297
,132,,2008,Tastecraft Kiwi Fruit Crush 1 Ltr,,Bottles,0,Bottles,,,,,Open,Y,Y,Y,,300
,159,,2008,Tastecraft Mango Crush 1 Ltr,,Bottles,0,Bottles,,,,,Open,Y,Y,Y,,180
,160,,2008,Tastecraft Orange Crush 1 Ltr,,Bottles,0,Bottles,,,,,Open,Y,Y,Y,,200
,133,,2008,Tastecraft Strawberry Crush 1 Ltr,,Bottles,0,Bottles,,,,,Open,Y,Y,Y,,202
Prepared Food stuffs: Beverages,28,,2202,THUMPS UP 300ML CAN PK 24,,Case,0,,Coca Cola,Prepared Food stuffs: Beverages,Traded Goods,Produced,Open,Y,Y,Y,,612
Prepared Food stuffs: Beverages,76,,2202,Thums Up 250 ml,,Case,0,Case,Coca Cola,Prepared Food stuffs: Beverages,,,Open,Y,Y,Y,,400
,168,,2202,Thums Up 250ml PK 28,,Case,0,Case,Coca Cola,,,,Open,Y,Y,Y,,490
Prepared Food stuffs: Beverages,42,,2202,THUMS UP 250ML PK 30,,Case,0,,Coca Cola,Prepared Food stuffs: Beverages,,,Open,Y,Y,Y,,460
Prepared Food stuffs: Beverages,43,,2202,THUMS UP 750ML PK 24,,Case,0,Case,Coca Cola,Prepared Food stuffs: Beverages,,,Open,Y,Y,Y,,650
,1046,,2208,THUMSUP 1.25 LTR,,Ltr.,0,Ltr.,Coca Cola,,,,Open,Y,Y,Y,,100
,207,,1247,Thumsup 180 ml pk36,,Nos.,0,Nos.,,,,,Open,Y,Y,Y,,670
Animal Products,21,,2202,Tonic water,,Case,0,,Coca Cola,Animal Products,Traded Goods,Produced,Open,Y,Y,Y,,840
Prepared Food stuffs: Beverages,14,,2202,TROPICANA APPLE 1LTR JUICE PK 12,,Case,0,Case,Tropicana,Prepared Food stuffs: Beverages,Traded Goods,Produced,Open,Y,Y,Y,,780
Prepared Food stuffs: Beverages,19,,2202,TROPICANA CRANBERRY JUICE 1 LTR PK 12 ,,Case,0,Case,Tropicana,Prepared Food stuffs: Beverages,Traded Goods,Produced,Open,Y,Y,Y,,864
Prepared Food stuffs: Beverages,17,,2202,TROPICANA GUAVA JUICE 1 LTR PK 12,,Case,0,Case,Tropicana,Prepared Food stuffs: Beverages,Traded Goods,Produced,Open,Y,Y,Y,,780
,108,,2202,TROPICANA LITCHI 1LTR PK 12,,Case,0,Case,Tropicana,,,,Open,Y,Y,Y,,800
,106,,2202,TROPICANA MANGO 1 LTR PK 12,,Case,0,Case,Tropicana,,,,Open,Y,Y,Y,,800
,223,,2209,TROPICANA MIX FRUIT JUICE 1 LTR PK 12,,Case,0,,,,,,Open,Y,Y,Y,,750
Prepared Food stuffs: Beverages,15,,2202,TROPICANA ORANGE JUICE 1 LTR PK 12,,Case,0,Case,Tropicana,Prepared Food stuffs: Beverages,Traded Goods,Produced,Open,Y,Y,Y,,780
Prepared Food stuffs: Beverages,16,,2202,TROPICANA PINEAPPLE JUICE 1ltr PK 12,,Case,0,Case,Tropicana,Prepared Food stuffs: Beverages,Traded Goods,Produced,Open,Y,Y,Y,,780
,107,,2202,TROPICANA POMEGRANATE 1 LTR PK 12,,Case,0,Case,Tropicana,,,,Open,Y,Y,Y,,900
Prepared Food stuffs: Beverages,18,,2202,TROPICANA TOMATO JUICE 1LTR PK 12 ,,Case,0,Case,Tropicana,Prepared Food stuffs: Beverages,Traded Goods,Produced,Open,Y,Y,Y,,780
,97,,2201,TUBIG 1000ML MINERAL WATER,,Case,0,Case,,,,,Open,Y,Y,Y,,246
,142,,2201,ULA 500ML MINERAL WATER,,Case,0,Case,,,,,Open,Y,Y,Y,,145
Medical & Surgical Instruments,1158,,1126,UV STERILISATION BOX,UV STERILISATION BOX,Nos.,0,Nos.,,Medical & Surgical Instruments,,,Open,Y,Y,Y,,8500
Medical & Surgical Instruments,183,,3307,WC Pee Spray 300ml,,Nos.,0,Nos.,,Medical & Surgical Instruments,,,Open,Y,Y,Y,,170
,190,,4015,White Surgical Gloves (Box),,Box,0,Box,,,,,Open,Y,Y,Y,,500
Medical & Surgical Instruments,184,,4818,Wipes,,Pack,0,,,Medical & Surgical Instruments,,,Open,Y,Y,Y,,160
